{
  "manufacturerDescription": "With a sensitivity of 160 ASA, the P33 ensures a simpler and more versatile photographic experience compared to the past. Designed to overcome the processing and printing challenges faced by enthusiasts of the P30, the P33 offers distinctive features such as fine grain and defined contrast. This film not only meets the needs of professionals but also makes analog photography accessible to less experienced enthusiasts. Remaining true to the tradition of Film Ferrania, the P33 combines innovation and tradition, demonstrating the company's ongoing evolution in the industry.",
  "boxSpeed": 160,
  "color": "b&w",
  "spectrum": "panchromatic",
  "process": "b&w",
  "datasheets": {
    "en": "https://drive.google.com/file/d/1SCAWaGpY-zNrDj_DmGqCBMNCIGRuo88U/view?usp=share_link"
  },
  "formats": [
    "135-36"
  ]
}