{
  "manufacturerDescription": "CINEMA is a fast iso 800 color 35mm film. We have used film for movie cameras and removed the protective remjet layer to make it more accessible for all 35mm film shooters! Expect epic colors, insane tones at night, halo effect around bright red lights and a bluish tone in daylight.",
  "boxSpeed": 800,
  "color": "color",
  "process": "C41",
  "formats": [
    "135-36"
  ]
}