{
  "manufacturerDescription": "HARMAN Phoenix 200 is a brand-new ISO 200, C41 colour negative film and the first ever made entirely from emulsion to cassette at our Mobberley factory, a significant yet incredibly exciting milestone.\nHigh contrast and strong, visible grain are just some of its unique traits that help to produce characterful, unmistakeably analogue, results unlike any other colour film.\nWith a DX coded cassette and a box speed of ISO 200, Phoenix can be rated between ISO 100 and 400 but performs best in good, consistent light. On brighter days or when shooting into the light there is also a possibility of halation.\nIt delivers punchy, vibrant colours although they react differently to different scanners and settings. Getting the exposure right will certainly help to get the best results so we suggest metering for the mid tones to retain shadow or highlight detail (over or under exposure is not Phoenix’s friend)!\nPart of the fun of shooting film is expecting the unexpected and this film delivers exactly that from its uniquely coloured negatives to chance encounters with occasional coating anomalies. Hold back your expectations and enjoy the experience!",
  "boxSpeed": 200,
  "color": "color",
  "spectrum": "panchromatic",
  "process": "C41",
  "datasheets": {
    "en": "https://www.harmanphoto.co.uk/amfile/file/download/file/1963/product/2143/"
  },
  "additionalTechnicalInformation": [
    "https://www.harmanphoto.co.uk/amfile/file/download/file/1963/product/2143/"
  ],
  "formats": {
    "135-36": {
      "base": "acetate",
      "baseThickness": 0.125
    },
  },
  "reciprocityFailure": [
    {
      "tStart": 1.0,
      "p": 1.31
    }
  ]
}