{
  "manufacturerDescription": "RETOCOLOR AQUA 400 Film, 27EXP 35MM, is a film that produces faded and low contrast colors when used in varied circumstances. Under daylight condition, it creates an icy bluish color tone and additionally add grainy texture to the photos.",
  "boxSpeed": 400,
  "color": "color",
  "process": "C41",
  "formats": [
    "135-27"
  ]
}