{
  "manufacturerDescription": "Colour 35mm film with an added mix of colour tones that produces a unique image quality. Tinted with multicoloured gradients.",
  "boxSpeed": 200,
  "color": "color",
  "process": "C41",
  "formats": [
    "135-24",
    "135-36"
  ]
}