{
  "manufacturerDescription": "Introducing our new 400 speed Pacific film using the incredible Kodak Ultramax as our base layer! Pacific is a Colour 35mm film pre-exposed with mellow tones.",
  "boxSpeed": 400,
  "color": "color",
  "process": "C41",
  "formats": [
    "135-36"
  ]
}